{"_id":{"$oid":"594ca202364d8c14500392d3"},"email":"songngu147@gmail.com","password":"$2a$05$yJBjlnrSx49S0muRnewu.ee988LVTjuhrep9OL52tvzw61kmgVY7e","username":"test","__v":0}
{"_id":{"$oid":"594d0f48ce7a6b23d4941a01"},"email":"lvduyanh@gmail.com","password":"$2a$05$BlbWT504ZaCzwOfbXi.SNOeJV/6cHwXheKObOgzNwS1QRz7buoLOK","username":"admin","__v":0}
{"_id":{"$oid":"594e083e1cec1c0db4fbc961"},"email":"lvduyanh@gmail.com","password":"$2a$05$JUX.wVW4REiru/66YnKMYu67ahgtdFcTQjQ.Sdxo/2VGYLp.96VDa","username":"boss","__v":0}
{"_id":{"$oid":"5950b7ea5d333f1fac0e081b"},"email":"lvduyanh@gmail.com","password":"$2a$05$fPPO7OG.OiqOHsuyILrOEu6919a/BxYunYZr47O0p45Ji4DMQhqne","username":"test3","__v":0}
{"_id":{"$oid":"5950ff73e4c0ed1158a21cd3"},"email":"songngu147@gmail.com","password":"$2a$05$SzAtNtBZDvqxE6evHp2nJ.V/8RJxlPoH8/gTbZN/mxSiIXHCTX4Nm","username":"happy","__v":0}
{"_id":{"$oid":"5951000dc381b014ac91d41a"},"email":"songngu147@gmail.com","password":"$2a$05$uY.IocmFn.EhCIKWlOq1AuVcmru3fQW5qHoDGRSMM91oxangR9/QC","username":"abcd","__v":0}
{"_id":{"$oid":"59535ec2b2dcd70be46437c7"},"email":"lvduyanh@gmail.com","password":"$2a$05$Bpnycx1Gm0yKwuKvW7cxk.o94QxxpieVWRAzI8zLDwtQSVH1NTy.i","username":"12345","__v":0}
